<?xml version="1.0" encoding="utf-8"?>
<!-- Generator: Adobe Illustrator 16.0.4, SVG Export Plug-In . SVG Version: 6.00 Build 0)  -->
<!DOCTYPE svg PUBLIC "-//W3C//DTD SVG 1.0//EN" "http://www.w3.org/TR/2001/REC-SVG-20010904/DTD/svg10.dtd">
<svg version="1.0" id="Layer_1" xmlns:sketch="http://www.bohemiancoding.com/sketch/ns"
	 xmlns="http://www.w3.org/2000/svg" xmlns:xlink="http://www.w3.org/1999/xlink" x="0px" y="0px" width="30px" height="18px"
	 viewBox="0 0 30 18" enable-background="new 0 0 30 18" xml:space="preserve">
<title>bg-mobile-nav</title>
<description>Created with Sketch (http://www.bohemiancoding.com/sketch)</description>
<g id="Page_1">
	<g id="Group">
		<path id="Shape" fill="#F1B82D" d="M29,1.5C29,2.328,28.328,3,27.5,3h-25C1.672,3,1,2.328,1,1.5l0,0C1,0.671,1.672,0,2.5,0h25
			C28.328,0,29,0.671,29,1.5L29,1.5L29,1.5L29,1.5"/>
		<path id="Shape_1_" fill="#F1B82D" d="M29,15.5c0,0.828-0.672,1.5-1.5,1.5h-25C1.672,17,1,16.328,1,15.5l0,0
			C1,14.672,1.672,14,2.5,14h25C28.328,14,29,14.672,29,15.5L29,15.5L29,15.5L29,15.5"/>
		<path id="Shape_2_" fill="#F1B82D" d="M29,8.5c0,0.828-0.672,1.5-1.5,1.5h-25C1.672,10,1,9.328,1,8.5l0,0C1,7.672,1.672,7,2.5,7
			h25C28.328,7,29,7.672,29,8.5L29,8.5L29,8.5L29,8.5"/>
	</g>
</g>
</svg>
