<?xml version="1.0" encoding="utf-8"?>
<!-- Generator: Adobe Illustrator 16.0.4, SVG Export Plug-In . SVG Version: 6.00 Build 0)  -->
<!DOCTYPE svg PUBLIC "-//W3C//DTD SVG 1.0//EN" "http://www.w3.org/TR/2001/REC-SVG-20010904/DTD/svg10.dtd">
<svg version="1.0" id="Layer_1" xmlns:sketch="http://www.bohemiancoding.com/sketch/ns"
	 xmlns="http://www.w3.org/2000/svg" xmlns:xlink="http://www.w3.org/1999/xlink" x="0px" y="0px" width="23px" height="23px"
	 viewBox="0 0 23 23" enable-background="new 0 0 23 23" xml:space="preserve">
<path id="Oval_21" fill="#FEEDC2" stroke="#222121" d="M11.5,22C17.299,22,22,17.299,22,11.5S17.299,1,11.5,1S1,5.701,1,11.5
	S5.701,22,11.5,22z"/>
<path id="_x21__copy" fill="#191919" d="M10.368,13.857l-0.399-8.53h2.907l-0.38,8.53H10.368z M11.432,18.189
	c-0.836,0-1.52-0.703-1.52-1.52c0-0.836,0.684-1.539,1.52-1.539c0.835,0,1.539,0.703,1.539,1.539
	C12.971,17.486,12.268,18.189,11.432,18.189z"/>
</svg>
