<?xml version="1.0" encoding="utf-8"?>
<!-- Generator: Adobe Illustrator 16.0.4, SVG Export Plug-In . SVG Version: 6.00 Build 0)  -->
<!DOCTYPE svg PUBLIC "-//W3C//DTD SVG 1.0//EN" "http://www.w3.org/TR/2001/REC-SVG-20010904/DTD/svg10.dtd">
<svg version="1.0" id="Layer_1" xmlns:sketch="http://www.bohemiancoding.com/sketch/ns"
	 xmlns="http://www.w3.org/2000/svg" xmlns:xlink="http://www.w3.org/1999/xlink" x="0px" y="0px" width="175px" height="40px"
	 viewBox="0 0 175 40" enable-background="new 0 0 175 40" xml:space="preserve">
<path id="University_of_Missou" d="M2.917,3.983c0-1.983-0.1-2.2-1.45-2.2c-0.217,0-0.434-0.1-0.434-0.2
	c0-0.434,0.017-0.467,0.3-0.467c0.966,0,1.917,0.067,2.883,0.067c0.966,0,1.917-0.067,2.883-0.067c0.283,0,0.3,0.033,0.3,0.467
	c0,0.1-0.217,0.2-0.433,0.2c-1.35,0-1.45,0.217-1.45,2.2v4.15c0,3.833,2.65,3.9,3.567,3.9c2.216,0,3.433-1.533,3.433-4.566V4.533
	c0-2.75-0.583-2.75-1.65-2.75c-0.15,0-0.5-0.05-0.5-0.3c0-0.233,0.033-0.367,0.25-0.367c0.533,0,1.417,0.067,2.1,0.067
	c0.566,0,1.367-0.067,2.133-0.067c0.217,0,0.217,0.133,0.217,0.433c0,0.184-0.2,0.217-0.567,0.233
	C14.067,1.816,13.283,1.95,13.267,3.2c-0.083,4.4-0.15,5.733-0.316,6.433c-0.6,2.633-2.767,3.617-5.05,3.617
	c-3.367,0-4.983-1.917-4.983-4.083V3.983z M16.267,11.767V7.9c0-1.033-0.233-1.15-1-1.316c-0.15-0.034-0.167-0.1-0.167-0.25
	c0-0.083,0.033-0.184,0.083-0.2c2.333-0.417,3-1.067,3.083-1.067c0.017,0,0.133,0.067,0.133,0.15c0,0.417-0.05,0.883-0.05,1.316
	c0.983-0.683,1.917-1.167,2.933-1.167c1.217,0,2.117,0.85,2.117,2.167v4.233c0,0.617,0.4,0.65,0.483,0.65
	C24.5,12.45,24.75,12.5,24.75,12.633c0,0.317,0,0.383-0.317,0.383c-0.667,0-1.366-0.033-2.1-0.033c-0.717,0-1.417,0.033-1.917,0.033
	c-0.15,0-0.15-0.066-0.15-0.383c0-0.133,0.083-0.183,0.533-0.217c0.083,0,0.483-0.033,0.483-0.65v-3.7
	c0-0.533-0.267-1.517-1.4-1.517c-0.417,0-1.183,0.284-1.467,0.617c-0.033,0.184-0.033,0.45-0.033,0.7v3.9
	c0,0.617,0.4,0.65,0.483,0.65c0.617,0.034,0.7,0.083,0.7,0.217c0,0.317,0,0.383-0.15,0.383c-0.667,0-1.367-0.033-2.1-0.033
	c-0.717,0-1.417,0.033-2.083,0.033c-0.15,0-0.15-0.066-0.15-0.383c0-0.133,0.083-0.183,0.7-0.217
	C15.867,12.417,16.267,12.383,16.267,11.767z M26.167,11.767V7.9c0-1.033-0.233-1.15-1-1.316C25.017,6.55,25,6.483,25,6.333
	c0-0.083,0.033-0.184,0.083-0.2c2.333-0.417,3-1.067,3.083-1.067c0.1,0,0.2,0.134,0.2,0.233c0,0.134-0.083,0.967-0.083,2.567v3.9
	c0,0.617,0.4,0.65,0.483,0.65c0.617,0.034,0.7,0.083,0.7,0.217c0,0.317,0,0.383-0.15,0.383c-0.667,0-1.367-0.033-2.1-0.033
	c-0.717,0-1.417,0.033-2.083,0.033c-0.15,0-0.15-0.066-0.15-0.383c0-0.133,0.083-0.183,0.7-0.217
	C25.767,12.417,26.167,12.383,26.167,11.767z M25.967,2.267c0-0.683,0.55-1.233,1.233-1.233c0.683,0,1.233,0.55,1.233,1.233
	c0,0.684-0.55,1.233-1.233,1.233C26.517,3.5,25.967,2.95,25.967,2.267z M30.433,7.066c-0.35-0.8-0.5-0.85-1.1-0.85
	c-0.1,0-0.167-0.15-0.167-0.3s0.067-0.3,0.184-0.3c0.683,0,1.367,0.05,2.05,0.05c0.717,0,1.434-0.05,2.217-0.05
	c0.117,0,0.133,0.083,0.133,0.283c0,0.2-0.05,0.317-0.517,0.317c-0.133,0-0.517,0.133-0.517,0.433c0,0.534,1.283,3.383,1.55,3.867
	C34.5,9.95,35.833,7.15,35.833,6.75c0-0.333-0.267-0.533-0.867-0.533c-0.284,0-0.317-0.1-0.317-0.3c0-0.15,0.033-0.3,0.133-0.3
	c0.45,0,0.967,0.05,1.483,0.05c0.483,0,0.983-0.05,1.467-0.05c0.117,0,0.133,0.083,0.133,0.183c0,0.233,0,0.417-0.133,0.417
	c-0.434,0-0.767,0.033-0.934,0.4c-0.767,1.667-2.3,4.967-3.017,6.3c-0.117,0.217-0.2,0.333-0.45,0.333c-0.3,0-0.467-0.566-0.833-1.4
	L30.433,7.066z M40.017,8.55c-0.017,0.2-0.033,0.3-0.033,0.367c0,1.367,0.75,2.967,2.717,2.967c1.667,0,1.983-1.15,2.2-1.15
	c0.15,0,0.333,0.083,0.333,0.25c0,0.233-0.833,2.233-3.533,2.233c-3.184,0-3.934-2.6-3.934-3.917c0-2.183,1.55-4.033,3.8-4.033
	c2.783,0,3.583,2.067,3.583,2.917c0,0.35-0.066,0.366-0.35,0.366H40.017z M40.067,7.9c0.45,0.034,0.883,0.05,1.333,0.05
	c1.317,0,1.467-0.1,1.467-0.6c0-0.85-0.467-1.483-1.35-1.483C40.533,5.867,40.067,7.05,40.067,7.9z M47.333,7.9
	c0-1.033-0.233-1.15-1-1.316c-0.15-0.034-0.167-0.1-0.167-0.25c0-0.083,0.034-0.184,0.083-0.2c2.333-0.417,3-1.067,3.083-1.067
	c0.017,0,0.133,0.067,0.133,0.15c0,0.417-0.05,0.883-0.05,1.483c0.667-0.634,1.467-1.434,2.45-1.434c0.6,0,1.2,0.45,1.2,1.083
	c0,0.566-0.35,1.066-0.967,1.066c-0.967,0-0.967-0.767-1.55-0.767c-0.5,0-0.983,0.65-1.1,0.833v4.283c0,0.617,0.4,0.65,0.483,0.65
	c0.867,0.034,0.983,0.083,0.983,0.217c0,0.317-0.033,0.383-0.433,0.383c-0.667,0-1.367-0.033-2.1-0.033
	c-0.717,0-1.417,0.033-2.083,0.033c-0.15,0-0.15-0.066-0.15-0.383c0-0.133,0.083-0.183,0.7-0.217c0.083,0,0.483-0.033,0.483-0.65
	V7.9z M57.95,8.783c0.8,0.283,1.3,1.067,1.3,1.9c0,1.783-1.667,2.533-3.217,2.533c-0.633,0-1.283-0.15-2.35-0.15
	c-0.05,0-0.167-0.066-0.167-0.116c0-0.534-0.333-1.684-0.333-1.983c0-0.033,0.067-0.05,0.217-0.05c0.117,0,0.283,0.034,0.317,0.067
	c0.983,1.55,1.483,1.566,2.216,1.566c0.15,0,1.2-0.066,1.2-1.2c0-1.65-3.767-0.883-3.767-3.567c0-1.617,1.566-2.517,3.017-2.517
	c0.967,0,1.917,0.2,2.283,0.25c0.05,0,0.1,0.083,0.1,0.133c0,0.483,0.267,1.733,0.267,1.833c0,0.066-0.017,0.133-0.1,0.133
	c-0.167,0-0.4,0-0.45-0.083c-0.383-0.717-0.983-1.6-1.934-1.6c-0.65,0-1.233,0.417-1.233,1.116
	C55.317,7.783,55.917,8.066,57.95,8.783z M61.167,11.767V7.9c0-1.033-0.233-1.15-1-1.316C60.017,6.55,60,6.483,60,6.333
	c0-0.083,0.033-0.184,0.083-0.2c2.333-0.417,3-1.067,3.083-1.067c0.1,0,0.2,0.134,0.2,0.233c0,0.134-0.083,0.967-0.083,2.567v3.9
	c0,0.617,0.4,0.65,0.483,0.65c0.617,0.034,0.7,0.083,0.7,0.217c0,0.317,0,0.383-0.15,0.383c-0.667,0-1.367-0.033-2.1-0.033
	c-0.717,0-1.417,0.033-2.083,0.033c-0.15,0-0.15-0.066-0.15-0.383c0-0.133,0.083-0.183,0.7-0.217
	C60.767,12.417,61.167,12.383,61.167,11.767z M60.967,2.267c0-0.683,0.55-1.233,1.233-1.233c0.683,0,1.233,0.55,1.233,1.233
	c0,0.684-0.55,1.233-1.233,1.233C61.517,3.5,60.967,2.95,60.967,2.267z M68.217,5.75h2.336c0.028-0.075,0.097-0.133,0.264-0.133
	c0.216,0,0.616,0.05,1.866,0.05c1.55,0,1.95-0.05,2.217-0.05c0.167,0,0.167,0.167,0.167,0.3c0,0.167,0,0.3-0.3,0.3
	c-0.167,0-0.65,0.066-0.65,0.4c0,0.95,1.283,3.783,1.55,4.417c0.383-0.8,1.817-3.633,1.817-4.333c0-0.267-0.05-0.483-0.684-0.483
	c-0.566,0-0.566-0.083-0.566-0.333c0-0.217,0.033-0.267,0.267-0.267c0.2,0,0.533,0.05,1.4,0.05c0.934,0,1.2-0.05,1.45-0.05
	c0.2,0,0.2,0.15,0.2,0.3c0,0.083-0.017,0.3-0.417,0.3c-0.467,0-0.8,0.6-1.033,1.1l-3.467,7.65c-0.566,1.25-1.033,2.566-2.283,2.566
	c-0.533,0-1.067-0.4-1.067-0.983c0-0.566,0.417-1.05,1-1.05c0.567,0,0.8,0.417,1.034,0.417c0.35,0,1.033-1.966,1.033-2.167
	c0-0.517-0.55-1.65-0.75-2.1c-1.05-2.35-1.817-4.783-1.967-5.066c-0.137-0.259-0.191-0.351-0.683-0.365v0.015
	c0,0.4-0.034,0.4-0.267,0.4h-2.466v3.733c0,0.817,0.066,1.9,1.216,1.9c0.617,0,1.217-0.383,1.267-0.383c0.1,0,0.233,0.25,0.233,0.35
	c0,0.133-0.933,0.983-2.483,0.983c-1.45,0-2.35-0.667-2.35-1.85V6.633h-0.967c-0.167,0-0.167-0.1-0.167-0.267
	c0-0.183,0.033-0.2,0.066-0.233c1.434-0.883,2.184-1.617,2.684-2.3c0.033-0.05,0.066-0.05,0.35-0.05c0.15,0,0.233,0.017,0.233,0.167
	C68.3,4.533,68.233,5.117,68.217,5.75z M88.617,13.217c-1.517,0-4.3-0.9-4.3-3.983c0-3.067,2.783-3.967,4.3-3.967
	c1.516,0,4.299,0.9,4.299,3.967C92.916,12.316,90.133,13.217,88.617,13.217z M88.617,12.617c1.633,0,1.833-1.9,1.833-3.383
	c0-1.467-0.2-3.367-1.833-3.367c-1.634,0-1.834,1.9-1.834,3.383C86.783,10.717,86.983,12.617,88.617,12.617z M97.084,5.75h2.1
	c0.066,0,0.116,0.117,0.116,0.483c0,0.4-0.033,0.4-0.267,0.4h-1.949v5.133c0,0.617,0.399,0.65,0.482,0.65
	c0.867,0.034,0.983,0.083,0.983,0.217c0,0.317-0.033,0.383-0.433,0.383c-0.667,0-1.367-0.033-2.101-0.033
	c-0.717,0-1.417,0.033-2.083,0.033c-0.15,0-0.15-0.066-0.15-0.383c0-0.133,0.084-0.183,0.7-0.217c0.083,0,0.483-0.033,0.483-0.65
	V7.85c0-0.95,0-1.217-0.283-1.217H93.9c-0.316,0-0.334-0.083-0.334-0.433c0-0.2,0.95-0.184,1.268-0.567
	C94.9,5.55,94.95,5.217,95.017,4.667c0.384-3.433,3.184-4.133,4.25-4.133c0.601,0,1.5,0.233,1.5,1c0,0.6-0.417,0.95-1,0.95
	c-0.483,0-0.783-0.25-1.033-0.517c-0.25-0.25-0.467-0.5-0.767-0.5c-0.617,0-0.883,0.933-0.883,2.167V5.75z M111.267,12.95
	c-0.066,0.167-0.183,0.25-0.366,0.25c-0.268,0-0.351,0-0.551-0.6c-1.266-3.667-2.316-6.367-3.266-8.8h-0.034
	c-1.116,6.25-1.116,7.2-1.116,7.384c0,0.966,0.217,1.183,1.017,1.183c0.466,0,0.583,0.067,0.583,0.267c0,0.383-0.066,0.4-0.199,0.4
	c-0.484,0-0.967-0.033-1.567-0.033c-1.884,0-1.983,0.033-2.033,0.033c-0.167,0-0.3-0.033-0.3-0.267c0-0.333,0.083-0.367,0.533-0.4
	c0.983-0.067,0.967-0.167,1.25-1.8l1.35-7.866c-0.316-0.817-0.482-0.917-1.199-0.917s-0.734-0.066-0.734-0.367
	c0-0.2,0.033-0.3,0.25-0.3c0.934,0,1.5,0.067,1.934,0.067c0.4,0,1-0.067,1.95-0.067c0.05,0,0.167,0.05,0.184,0.117
	c0.816,2.483,1.899,5.3,3.05,8.383c1.117-2.65,2.283-5.283,3.316-7.967c0.15-0.4,0.268-0.533,0.4-0.533c1,0,1.633,0.067,1.916,0.067
	c0.351,0,1-0.067,2.117-0.067c0.117,0,0.184,0.017,0.184,0.3c0,0.333-0.051,0.367-0.566,0.367c-1.117,0-1.268,0.3-1.268,1.167
	c0,0.583,0.117,1.917,0.25,7.383c0.051,1.783,0.101,2.033,1.533,2.033c0.25,0,0.268,0.117,0.268,0.283
	c0,0.3,0.016,0.383-0.217,0.383c-0.65,0-1.301-0.033-1.95-0.033c-1.2,0-2.399,0.033-3.601,0.033c-0.217,0-0.217-0.15-0.217-0.3
	c0-0.317,0.067-0.367,0.351-0.367c0.8,0,1.366-0.033,1.366-0.583c0-1.483-0.183-6.066-0.266-8.933h-0.033L111.267,12.95z
	 M121.65,11.767V7.9c0-1.033-0.234-1.15-1-1.316c-0.15-0.034-0.167-0.1-0.167-0.25c0-0.083,0.033-0.184,0.083-0.2
	c2.334-0.417,3-1.067,3.084-1.067c0.1,0,0.199,0.134,0.199,0.233c0,0.134-0.083,0.967-0.083,2.567v3.9
	c0,0.617,0.399,0.65,0.483,0.65c0.617,0.034,0.7,0.083,0.7,0.217c0,0.317,0,0.383-0.15,0.383c-0.667,0-1.366-0.033-2.1-0.033
	c-0.717,0-1.417,0.033-2.083,0.033c-0.15,0-0.15-0.066-0.15-0.383c0-0.133,0.083-0.183,0.699-0.217
	C121.25,12.417,121.65,12.383,121.65,11.767z M121.45,2.267c0-0.683,0.55-1.233,1.233-1.233s1.232,0.55,1.232,1.233
	c0,0.684-0.549,1.233-1.232,1.233S121.45,2.95,121.45,2.267z M130.467,8.783c0.8,0.283,1.3,1.067,1.3,1.9
	c0,1.783-1.667,2.533-3.217,2.533c-0.634,0-1.283-0.15-2.35-0.15c-0.05,0-0.167-0.066-0.167-0.116c0-0.534-0.333-1.684-0.333-1.983
	c0-0.033,0.066-0.05,0.216-0.05c0.117,0,0.284,0.034,0.317,0.067c0.983,1.55,1.483,1.566,2.217,1.566c0.149,0,1.2-0.066,1.2-1.2
	c0-1.65-3.768-0.883-3.768-3.567c0-1.617,1.567-2.517,3.018-2.517c0.967,0,1.916,0.2,2.283,0.25c0.05,0,0.1,0.083,0.1,0.133
	c0,0.483,0.267,1.733,0.267,1.833c0,0.066-0.017,0.133-0.1,0.133c-0.167,0-0.4,0-0.45-0.083c-0.383-0.717-0.983-1.6-1.934-1.6
	c-0.65,0-1.232,0.417-1.232,1.116C127.834,7.783,128.434,8.066,130.467,8.783z M137.566,8.783c0.801,0.283,1.301,1.067,1.301,1.9
	c0,1.783-1.667,2.533-3.217,2.533c-0.634,0-1.283-0.15-2.351-0.15c-0.05,0-0.167-0.066-0.167-0.116c0-0.534-0.333-1.684-0.333-1.983
	c0-0.033,0.067-0.05,0.217-0.05c0.116,0,0.283,0.034,0.317,0.067c0.982,1.55,1.482,1.566,2.216,1.566c0.15,0,1.2-0.066,1.2-1.2
	c0-1.65-3.767-0.883-3.767-3.567c0-1.617,1.566-2.517,3.017-2.517c0.967,0,1.916,0.2,2.283,0.25c0.051,0,0.1,0.083,0.1,0.133
	c0,0.483,0.268,1.733,0.268,1.833c0,0.066-0.018,0.133-0.101,0.133c-0.167,0-0.399,0-0.45-0.083c-0.383-0.717-0.982-1.6-1.934-1.6
	c-0.649,0-1.232,0.417-1.232,1.116C134.934,7.783,135.533,8.066,137.566,8.783z M144.166,13.217c-1.516,0-4.299-0.9-4.299-3.983
	c0-3.067,2.783-3.967,4.299-3.967c1.518,0,4.301,0.9,4.301,3.967C148.467,12.316,145.684,13.217,144.166,13.217z M144.166,12.617
	c1.634,0,1.834-1.9,1.834-3.383c0-1.467-0.2-3.367-1.834-3.367c-1.633,0-1.832,1.9-1.832,3.383
	C142.334,10.717,142.533,12.617,144.166,12.617z M150.367,7.667c0-1.417-0.417-1.417-1.134-1.417c-0.149,0-0.149-0.05-0.149-0.267
	c0-0.083,0.016-0.25,0.116-0.25c1.066-0.017,2.134-0.083,3.283-0.117V9.95c0,1.316,0.267,2.083,1.467,2.083
	c0.35,0,1.35-0.267,1.35-0.667v-3.7c0-1.417-0.417-1.417-1.134-1.417c-0.149,0-0.149-0.05-0.149-0.267
	c0-0.083,0.017-0.25,0.116-0.25c1.067-0.017,2.134-0.083,3.367-0.117c-0.033,0.917-0.084,1.817-0.084,2.417v3.5
	c0,0.4,0.034,0.567,0.484,0.567c0.166,0,0.316-0.034,0.482-0.034c0.084,0,0.15,0,0.15,0.217c0,0.267,0,0.333-0.184,0.35
	c-0.684,0.067-1.366,0.217-1.899,0.333c-0.517,0.133-0.9,0.25-1.017,0.25c-0.084,0-0.2-0.067-0.2-0.417
	c0-0.1,0.033-0.316,0.033-0.616c-0.683,0.55-1.634,1.033-2.533,1.033c-2.366,0-2.366-1.75-2.366-3.434V7.667z M160.4,11.767V7.9
	c0-1.033-0.234-1.15-1-1.316c-0.15-0.034-0.167-0.1-0.167-0.25c0-0.083,0.033-0.184,0.083-0.2c2.334-0.417,3-1.067,3.084-1.067
	c0.016,0,0.133,0.067,0.133,0.15c0,0.417-0.05,0.883-0.05,1.483c0.667-0.634,1.467-1.434,2.45-1.434c0.6,0,1.199,0.45,1.199,1.083
	c0,0.566-0.35,1.066-0.967,1.066c-0.966,0-0.966-0.767-1.549-0.767c-0.5,0-0.984,0.65-1.101,0.833v4.283
	c0,0.617,0.399,0.65,0.483,0.65c0.867,0.034,0.983,0.083,0.983,0.217c0,0.317-0.033,0.383-0.434,0.383
	c-0.667,0-1.366-0.033-2.1-0.033c-0.717,0-1.417,0.033-2.083,0.033c-0.15,0-0.15-0.066-0.15-0.383c0-0.133,0.083-0.183,0.699-0.217
	C160,12.417,160.4,12.383,160.4,11.767z M167.334,11.767V7.9c0-1.033-0.234-1.15-1-1.316c-0.15-0.034-0.168-0.1-0.168-0.25
	c0-0.083,0.034-0.184,0.084-0.2c2.334-0.417,3-1.067,3.084-1.067c0.1,0,0.199,0.134,0.199,0.233c0,0.134-0.083,0.967-0.083,2.567
	v3.9c0,0.617,0.399,0.65,0.483,0.65c0.616,0.034,0.699,0.083,0.699,0.217c0,0.317,0,0.383-0.149,0.383
	c-0.667,0-1.366-0.033-2.101-0.033c-0.717,0-1.416,0.033-2.083,0.033c-0.149,0-0.149-0.066-0.149-0.383
	c0-0.133,0.083-0.183,0.699-0.217C166.934,12.417,167.334,12.383,167.334,11.767z M167.133,2.267c0-0.683,0.551-1.233,1.234-1.233
	c0.683,0,1.232,0.55,1.232,1.233c0,0.684-0.55,1.233-1.232,1.233C167.684,3.5,167.133,2.95,167.133,2.267z"/>
<path id="University_of_Missou_1_" fill="#F1B82D" d="M2.917,23.983c0-1.983-0.1-2.2-1.45-2.2c-0.217,0-0.434-0.1-0.434-0.199
	c0-0.434,0.017-0.467,0.3-0.467c0.966,0,1.917,0.066,2.883,0.066c0.966,0,1.917-0.066,2.883-0.066c0.283,0,0.3,0.033,0.3,0.467
	c0,0.1-0.217,0.199-0.433,0.199c-1.35,0-1.45,0.217-1.45,2.2v4.149c0,3.834,2.65,3.9,3.567,3.9c2.216,0,3.433-1.533,3.433-4.566
	v-2.934c0-2.75-0.583-2.75-1.65-2.75c-0.15,0-0.5-0.05-0.5-0.3c0-0.233,0.033-0.366,0.25-0.366c0.533,0,1.417,0.066,2.1,0.066
	c0.566,0,1.367-0.066,2.133-0.066c0.217,0,0.217,0.133,0.217,0.433c0,0.184-0.2,0.217-0.567,0.233
	c-0.433,0.033-1.217,0.167-1.233,1.417c-0.083,4.399-0.15,5.733-0.316,6.433c-0.6,2.634-2.767,3.617-5.05,3.617
	c-3.367,0-4.983-1.916-4.983-4.084V23.983z M16.267,31.767V27.9c0-1.033-0.233-1.15-1-1.316c-0.15-0.034-0.167-0.101-0.167-0.25
	c0-0.084,0.033-0.184,0.083-0.201c2.333-0.416,3-1.066,3.083-1.066c0.017,0,0.133,0.066,0.133,0.15c0,0.416-0.05,0.883-0.05,1.316
	c0.983-0.684,1.917-1.166,2.933-1.166c1.217,0,2.117,0.85,2.117,2.166v4.233c0,0.616,0.4,0.649,0.483,0.649
	C24.5,32.45,24.75,32.5,24.75,32.633c0,0.317,0,0.384-0.317,0.384c-0.667,0-1.366-0.033-2.1-0.033c-0.717,0-1.417,0.033-1.917,0.033
	c-0.15,0-0.15-0.066-0.15-0.384c0-0.133,0.083-0.183,0.533-0.217c0.083,0,0.483-0.033,0.483-0.649v-3.7
	c0-0.533-0.267-1.517-1.4-1.517c-0.417,0-1.183,0.284-1.467,0.616c-0.033,0.184-0.033,0.451-0.033,0.701v3.899
	c0,0.616,0.4,0.649,0.483,0.649c0.617,0.034,0.7,0.084,0.7,0.217c0,0.317,0,0.384-0.15,0.384c-0.667,0-1.367-0.033-2.1-0.033
	c-0.717,0-1.417,0.033-2.083,0.033c-0.15,0-0.15-0.066-0.15-0.384c0-0.133,0.083-0.183,0.7-0.217
	C15.867,32.416,16.267,32.383,16.267,31.767z M26.167,31.767V27.9c0-1.033-0.233-1.15-1-1.316C25.017,26.55,25,26.483,25,26.334
	c0-0.084,0.033-0.184,0.083-0.201c2.333-0.416,3-1.066,3.083-1.066c0.1,0,0.2,0.134,0.2,0.233c0,0.134-0.083,0.967-0.083,2.567
	v3.899c0,0.616,0.4,0.649,0.483,0.649c0.617,0.034,0.7,0.084,0.7,0.217c0,0.317,0,0.384-0.15,0.384c-0.667,0-1.367-0.033-2.1-0.033
	c-0.717,0-1.417,0.033-2.083,0.033c-0.15,0-0.15-0.066-0.15-0.384c0-0.133,0.083-0.183,0.7-0.217
	C25.767,32.416,26.167,32.383,26.167,31.767z M25.967,22.267c0-0.683,0.55-1.233,1.233-1.233c0.683,0,1.233,0.551,1.233,1.233
	c0,0.684-0.55,1.233-1.233,1.233C26.517,23.5,25.967,22.95,25.967,22.267z M30.433,27.066c-0.35-0.8-0.5-0.85-1.1-0.85
	c-0.1,0-0.167-0.15-0.167-0.301c0-0.149,0.067-0.299,0.184-0.299c0.683,0,1.367,0.049,2.05,0.049c0.717,0,1.434-0.049,2.217-0.049
	c0.117,0,0.133,0.083,0.133,0.283c0,0.199-0.05,0.316-0.517,0.316c-0.133,0-0.517,0.133-0.517,0.434c0,0.533,1.283,3.383,1.55,3.866
	c0.233-0.566,1.567-3.366,1.567-3.767c0-0.334-0.267-0.533-0.867-0.533c-0.284,0-0.317-0.1-0.317-0.301
	c0-0.149,0.033-0.299,0.133-0.299c0.45,0,0.967,0.049,1.483,0.049c0.483,0,0.983-0.049,1.467-0.049c0.117,0,0.133,0.083,0.133,0.183
	c0,0.233,0,0.417-0.133,0.417c-0.434,0-0.767,0.033-0.934,0.4c-0.767,1.666-2.3,4.967-3.017,6.299
	c-0.117,0.217-0.2,0.334-0.45,0.334c-0.3,0-0.467-0.566-0.833-1.4L30.433,27.066z M40.017,28.55c-0.017,0.2-0.033,0.3-0.033,0.366
	c0,1.367,0.75,2.967,2.717,2.967c1.667,0,1.983-1.149,2.2-1.149c0.15,0,0.333,0.083,0.333,0.25c0,0.233-0.833,2.233-3.533,2.233
	c-3.184,0-3.934-2.6-3.934-3.917c0-2.183,1.55-4.033,3.8-4.033c2.783,0,3.583,2.067,3.583,2.917c0,0.35-0.066,0.366-0.35,0.366
	H40.017z M40.067,27.9c0.45,0.033,0.883,0.05,1.333,0.05c1.317,0,1.467-0.101,1.467-0.601c0-0.85-0.467-1.482-1.35-1.482
	C40.533,25.867,40.067,27.05,40.067,27.9z M47.333,31.767V27.9c0-1.033-0.233-1.15-1-1.316c-0.15-0.034-0.167-0.101-0.167-0.25
	c0-0.084,0.034-0.184,0.083-0.201c2.333-0.416,3-1.066,3.083-1.066c0.017,0,0.133,0.066,0.133,0.15c0,0.416-0.05,0.883-0.05,1.483
	c0.667-0.634,1.467-1.434,2.45-1.434c0.6,0,1.2,0.45,1.2,1.083c0,0.566-0.35,1.066-0.967,1.066c-0.967,0-0.967-0.766-1.55-0.766
	c-0.5,0-0.983,0.649-1.1,0.833v4.283c0,0.616,0.4,0.649,0.483,0.649c0.867,0.034,0.983,0.084,0.983,0.217
	c0,0.317-0.033,0.384-0.433,0.384c-0.667,0-1.367-0.033-2.1-0.033c-0.717,0-1.417,0.033-2.083,0.033c-0.15,0-0.15-0.066-0.15-0.384
	c0-0.133,0.083-0.183,0.7-0.217C46.933,32.416,47.333,32.383,47.333,31.767z M57.95,28.783c0.8,0.283,1.3,1.066,1.3,1.9
	c0,1.783-1.667,2.533-3.217,2.533c-0.633,0-1.283-0.15-2.35-0.15c-0.05,0-0.167-0.066-0.167-0.116c0-0.534-0.333-1.684-0.333-1.983
	c0-0.033,0.067-0.051,0.217-0.051c0.117,0,0.283,0.034,0.317,0.067c0.983,1.55,1.483,1.566,2.216,1.566c0.15,0,1.2-0.066,1.2-1.2
	c0-1.649-3.767-0.883-3.767-3.566c0-1.617,1.566-2.517,3.017-2.517c0.967,0,1.917,0.2,2.283,0.25c0.05,0,0.1,0.083,0.1,0.134
	c0,0.482,0.267,1.732,0.267,1.833c0,0.066-0.017,0.134-0.1,0.134c-0.167,0-0.4,0-0.45-0.084c-0.383-0.717-0.983-1.6-1.934-1.6
	c-0.65,0-1.233,0.416-1.233,1.116C55.317,27.783,55.917,28.066,57.95,28.783z M61.167,31.767V27.9c0-1.033-0.233-1.15-1-1.316
	C60.017,26.55,60,26.483,60,26.334c0-0.084,0.033-0.184,0.083-0.201c2.333-0.416,3-1.066,3.083-1.066c0.1,0,0.2,0.134,0.2,0.233
	c0,0.134-0.083,0.967-0.083,2.567v3.899c0,0.616,0.4,0.649,0.483,0.649c0.617,0.034,0.7,0.084,0.7,0.217c0,0.317,0,0.384-0.15,0.384
	c-0.667,0-1.367-0.033-2.1-0.033c-0.717,0-1.417,0.033-2.083,0.033c-0.15,0-0.15-0.066-0.15-0.384c0-0.133,0.083-0.183,0.7-0.217
	C60.767,32.416,61.167,32.383,61.167,31.767z M60.967,22.267c0-0.683,0.55-1.233,1.233-1.233c0.683,0,1.233,0.551,1.233,1.233
	c0,0.684-0.55,1.233-1.233,1.233C61.517,23.5,60.967,22.95,60.967,22.267z M68.217,25.75h2.336c0.028-0.075,0.097-0.133,0.264-0.133
	c0.216,0,0.616,0.049,1.866,0.049c1.55,0,1.95-0.049,2.217-0.049c0.167,0,0.167,0.166,0.167,0.299c0,0.168,0,0.301-0.3,0.301
	c-0.167,0-0.65,0.066-0.65,0.4c0,0.949,1.283,3.783,1.55,4.416c0.383-0.8,1.817-3.633,1.817-4.333c0-0.267-0.05-0.483-0.684-0.483
	c-0.566,0-0.566-0.084-0.566-0.334c0-0.217,0.033-0.266,0.267-0.266c0.2,0,0.533,0.049,1.4,0.049c0.934,0,1.2-0.049,1.45-0.049
	c0.2,0,0.2,0.149,0.2,0.299c0,0.084-0.017,0.301-0.417,0.301c-0.467,0-0.8,0.6-1.033,1.1l-3.467,7.65
	c-0.566,1.25-1.033,2.566-2.283,2.566c-0.533,0-1.067-0.4-1.067-0.983c0-0.566,0.417-1.05,1-1.05c0.567,0,0.8,0.416,1.034,0.416
	c0.35,0,1.033-1.966,1.033-2.166c0-0.517-0.55-1.65-0.75-2.1c-1.05-2.351-1.817-4.783-1.967-5.066
	c-0.137-0.26-0.191-0.352-0.683-0.365v0.015c0,0.399-0.034,0.399-0.267,0.399h-2.466v3.734c0,0.816,0.066,1.899,1.216,1.899
	c0.617,0,1.217-0.384,1.267-0.384c0.1,0,0.233,0.25,0.233,0.351c0,0.134-0.933,0.983-2.483,0.983c-1.45,0-2.35-0.667-2.35-1.85
	v-4.734h-0.967c-0.167,0-0.167-0.1-0.167-0.266c0-0.184,0.033-0.201,0.066-0.234c1.434-0.883,2.184-1.616,2.684-2.299
	c0.033-0.051,0.066-0.051,0.35-0.051c0.15,0,0.233,0.017,0.233,0.167C68.3,24.533,68.233,25.117,68.217,25.75z M88.617,33.217
	c-1.517,0-4.3-0.9-4.3-3.983c0-3.067,2.783-3.967,4.3-3.967c1.516,0,4.299,0.899,4.299,3.967
	C92.916,32.316,90.133,33.217,88.617,33.217z M88.617,32.617c1.633,0,1.833-1.9,1.833-3.384c0-1.467-0.2-3.366-1.833-3.366
	c-1.634,0-1.834,1.899-1.834,3.383C86.783,30.717,86.983,32.617,88.617,32.617z M97.084,25.75h2.1c0.066,0,0.116,0.117,0.116,0.483
	c0,0.399-0.033,0.399-0.267,0.399h-1.949v5.134c0,0.616,0.399,0.649,0.482,0.649c0.867,0.034,0.983,0.084,0.983,0.217
	c0,0.317-0.033,0.384-0.433,0.384c-0.667,0-1.367-0.033-2.101-0.033c-0.717,0-1.417,0.033-2.083,0.033
	c-0.15,0-0.15-0.066-0.15-0.384c0-0.133,0.084-0.183,0.7-0.217c0.083,0,0.483-0.033,0.483-0.649V27.85c0-0.949,0-1.217-0.283-1.217
	H93.9c-0.316,0-0.334-0.083-0.334-0.433c0-0.2,0.95-0.184,1.268-0.567c0.066-0.083,0.116-0.416,0.183-0.967
	c0.384-3.433,3.184-4.133,4.25-4.133c0.601,0,1.5,0.233,1.5,1c0,0.6-0.417,0.95-1,0.95c-0.483,0-0.783-0.25-1.033-0.517
	c-0.25-0.25-0.467-0.5-0.767-0.5c-0.617,0-0.883,0.934-0.883,2.166V25.75z M111.267,32.95c-0.066,0.167-0.183,0.25-0.366,0.25
	c-0.268,0-0.351,0-0.551-0.601c-1.266-3.666-2.316-6.366-3.266-8.8h-0.034c-1.116,6.25-1.116,7.2-1.116,7.384
	c0,0.967,0.217,1.184,1.017,1.184c0.466,0,0.583,0.066,0.583,0.266c0,0.384-0.066,0.4-0.199,0.4c-0.484,0-0.967-0.033-1.567-0.033
	c-1.884,0-1.983,0.033-2.033,0.033c-0.167,0-0.3-0.033-0.3-0.267c0-0.333,0.083-0.366,0.533-0.399
	c0.983-0.067,0.967-0.167,1.25-1.801l1.35-7.866c-0.316-0.817-0.482-0.917-1.199-0.917s-0.734-0.066-0.734-0.367
	c0-0.199,0.033-0.299,0.25-0.299c0.934,0,1.5,0.066,1.934,0.066c0.4,0,1-0.066,1.95-0.066c0.05,0,0.167,0.049,0.184,0.116
	c0.816,2.483,1.899,5.3,3.05,8.384c1.117-2.65,2.283-5.283,3.316-7.967c0.15-0.4,0.268-0.533,0.4-0.533c1,0,1.633,0.066,1.916,0.066
	c0.351,0,1-0.066,2.117-0.066c0.117,0,0.184,0.016,0.184,0.299c0,0.334-0.051,0.367-0.566,0.367c-1.117,0-1.268,0.301-1.268,1.167
	c0,0.583,0.117,1.917,0.25,7.384c0.051,1.783,0.101,2.033,1.533,2.033c0.25,0,0.268,0.116,0.268,0.283
	c0,0.3,0.016,0.383-0.217,0.383c-0.65,0-1.301-0.033-1.95-0.033c-1.2,0-2.399,0.033-3.601,0.033c-0.217,0-0.217-0.15-0.217-0.3
	c0-0.317,0.067-0.366,0.351-0.366c0.8,0,1.366-0.033,1.366-0.584c0-1.483-0.183-6.066-0.266-8.934h-0.033L111.267,32.95z
	 M121.65,31.767V27.9c0-1.033-0.234-1.15-1-1.316c-0.15-0.034-0.167-0.101-0.167-0.25c0-0.084,0.033-0.184,0.083-0.201
	c2.334-0.416,3-1.066,3.084-1.066c0.1,0,0.199,0.134,0.199,0.233c0,0.134-0.083,0.967-0.083,2.567v3.899
	c0,0.616,0.399,0.649,0.483,0.649c0.617,0.034,0.7,0.084,0.7,0.217c0,0.317,0,0.384-0.15,0.384c-0.667,0-1.366-0.033-2.1-0.033
	c-0.717,0-1.417,0.033-2.083,0.033c-0.15,0-0.15-0.066-0.15-0.384c0-0.133,0.083-0.183,0.699-0.217
	C121.25,32.416,121.65,32.383,121.65,31.767z M121.45,22.267c0-0.683,0.55-1.233,1.233-1.233s1.232,0.551,1.232,1.233
	c0,0.684-0.549,1.233-1.232,1.233S121.45,22.95,121.45,22.267z M130.467,28.783c0.8,0.283,1.3,1.066,1.3,1.9
	c0,1.783-1.667,2.533-3.217,2.533c-0.634,0-1.283-0.15-2.35-0.15c-0.05,0-0.167-0.066-0.167-0.116c0-0.534-0.333-1.684-0.333-1.983
	c0-0.033,0.066-0.051,0.216-0.051c0.117,0,0.284,0.034,0.317,0.067c0.983,1.55,1.483,1.566,2.217,1.566c0.149,0,1.2-0.066,1.2-1.2
	c0-1.649-3.768-0.883-3.768-3.566c0-1.617,1.567-2.517,3.018-2.517c0.967,0,1.916,0.2,2.283,0.25c0.05,0,0.1,0.083,0.1,0.134
	c0,0.482,0.267,1.732,0.267,1.833c0,0.066-0.017,0.134-0.1,0.134c-0.167,0-0.4,0-0.45-0.084c-0.383-0.717-0.983-1.6-1.934-1.6
	c-0.65,0-1.232,0.416-1.232,1.116C127.834,27.783,128.434,28.066,130.467,28.783z M137.566,28.783
	c0.801,0.283,1.301,1.066,1.301,1.9c0,1.783-1.667,2.533-3.217,2.533c-0.634,0-1.283-0.15-2.351-0.15
	c-0.05,0-0.167-0.066-0.167-0.116c0-0.534-0.333-1.684-0.333-1.983c0-0.033,0.067-0.051,0.217-0.051
	c0.116,0,0.283,0.034,0.317,0.067c0.982,1.55,1.482,1.566,2.216,1.566c0.15,0,1.2-0.066,1.2-1.2c0-1.649-3.767-0.883-3.767-3.566
	c0-1.617,1.566-2.517,3.017-2.517c0.967,0,1.916,0.2,2.283,0.25c0.051,0,0.1,0.083,0.1,0.134c0,0.482,0.268,1.732,0.268,1.833
	c0,0.066-0.018,0.134-0.101,0.134c-0.167,0-0.399,0-0.45-0.084c-0.383-0.717-0.982-1.6-1.934-1.6c-0.649,0-1.232,0.416-1.232,1.116
	C134.934,27.783,135.533,28.066,137.566,28.783z M144.166,33.217c-1.516,0-4.299-0.9-4.299-3.983c0-3.067,2.783-3.967,4.299-3.967
	c1.518,0,4.301,0.899,4.301,3.967C148.467,32.316,145.684,33.217,144.166,33.217z M144.166,32.617c1.634,0,1.834-1.9,1.834-3.384
	c0-1.467-0.2-3.366-1.834-3.366c-1.633,0-1.832,1.899-1.832,3.383C142.334,30.717,142.533,32.617,144.166,32.617z M150.367,27.666
	c0-1.416-0.417-1.416-1.134-1.416c-0.149,0-0.149-0.05-0.149-0.267c0-0.083,0.016-0.25,0.116-0.25
	c1.066-0.017,2.134-0.083,3.283-0.116v4.333c0,1.316,0.267,2.083,1.467,2.083c0.35,0,1.35-0.267,1.35-0.666v-3.701
	c0-1.416-0.417-1.416-1.134-1.416c-0.149,0-0.149-0.05-0.149-0.267c0-0.083,0.017-0.25,0.116-0.25
	c1.067-0.017,2.134-0.083,3.367-0.116c-0.033,0.916-0.084,1.816-0.084,2.416v3.5c0,0.4,0.034,0.566,0.484,0.566
	c0.166,0,0.316-0.033,0.482-0.033c0.084,0,0.15,0,0.15,0.217c0,0.267,0,0.334-0.184,0.35c-0.684,0.067-1.366,0.217-1.899,0.334
	c-0.517,0.133-0.9,0.25-1.017,0.25c-0.084,0-0.2-0.066-0.2-0.417c0-0.1,0.033-0.316,0.033-0.616
	c-0.683,0.55-1.634,1.033-2.533,1.033c-2.366,0-2.366-1.75-2.366-3.434V27.666z M160.4,31.767V27.9c0-1.033-0.234-1.15-1-1.316
	c-0.15-0.034-0.167-0.101-0.167-0.25c0-0.084,0.033-0.184,0.083-0.201c2.334-0.416,3-1.066,3.084-1.066
	c0.016,0,0.133,0.066,0.133,0.15c0,0.416-0.05,0.883-0.05,1.483c0.667-0.634,1.467-1.434,2.45-1.434c0.6,0,1.199,0.45,1.199,1.083
	c0,0.566-0.35,1.066-0.967,1.066c-0.966,0-0.966-0.766-1.549-0.766c-0.5,0-0.984,0.649-1.101,0.833v4.283
	c0,0.616,0.399,0.649,0.483,0.649c0.867,0.034,0.983,0.084,0.983,0.217c0,0.317-0.033,0.384-0.434,0.384
	c-0.667,0-1.366-0.033-2.1-0.033c-0.717,0-1.417,0.033-2.083,0.033c-0.15,0-0.15-0.066-0.15-0.384c0-0.133,0.083-0.183,0.699-0.217
	C160,32.416,160.4,32.383,160.4,31.767z M167.334,31.767V27.9c0-1.033-0.234-1.15-1-1.316c-0.15-0.034-0.168-0.101-0.168-0.25
	c0-0.084,0.034-0.184,0.084-0.201c2.334-0.416,3-1.066,3.084-1.066c0.1,0,0.199,0.134,0.199,0.233c0,0.134-0.083,0.967-0.083,2.567
	v3.899c0,0.616,0.399,0.649,0.483,0.649c0.616,0.034,0.699,0.084,0.699,0.217c0,0.317,0,0.384-0.149,0.384
	c-0.667,0-1.366-0.033-2.101-0.033c-0.717,0-1.416,0.033-2.083,0.033c-0.149,0-0.149-0.066-0.149-0.384
	c0-0.133,0.083-0.183,0.699-0.217C166.934,32.416,167.334,32.383,167.334,31.767z M167.133,22.267c0-0.683,0.551-1.233,1.234-1.233
	c0.683,0,1.232,0.551,1.232,1.233c0,0.684-0.55,1.233-1.232,1.233C167.684,23.5,167.133,22.95,167.133,22.267z"/>
</svg>
