<?xml version="1.0" encoding="utf-8"?>
<!-- Generator: Adobe Illustrator 16.0.4, SVG Export Plug-In . SVG Version: 6.00 Build 0)  -->
<!DOCTYPE svg PUBLIC "-//W3C//DTD SVG 1.0//EN" "http://www.w3.org/TR/2001/REC-SVG-20010904/DTD/svg10.dtd">
<svg version="1.0" id="rtf" xmlns="http://www.w3.org/2000/svg" xmlns:xlink="http://www.w3.org/1999/xlink" x="0px" y="0px"
	 width="16px" height="16px" viewBox="0 0 16 16" enable-background="new 0 0 16 16" xml:space="preserve">
<g id="page">
	<polygon fill="#FFFFFF" points="1,16 1,1 10.794,1 14,4.207 14,16 	"/>
	<path fill="#C9C9C9" d="M10.793,1L14,4.414V15H2V1h9 M11.001,0H1v16h14V4L11.001,0L11.001,0L11.001,0z"/>
</g>
<linearGradient id="background_1_" gradientUnits="userSpaceOnUse" x1="2.5005" y1="13.501" x2="12.0009" y2="4.0006">
	<stop  offset="0.5" style="stop-color:#FFFFFF"/>
	<stop  offset="1" style="stop-color:#E6E6E6"/>
</linearGradient>
<polygon id="background" fill="url(#background_1_)" points="10,5 10,2 3,2 3,14 13,14 13,5 "/>
<linearGradient id="line_1_1_" gradientUnits="userSpaceOnUse" x1="4" y1="4.5" x2="10" y2="4.5">
	<stop  offset="0" style="stop-color:#B3B3B3"/>
	<stop  offset="1" style="stop-color:#999999"/>
</linearGradient>
<rect id="line_1" x="4" y="4" fill="url(#line_1_1_)" width="6" height="1"/>
<linearGradient id="line_2_1_" gradientUnits="userSpaceOnUse" x1="4" y1="6.5" x2="12" y2="6.5">
	<stop  offset="0" style="stop-color:#B3B3B3"/>
	<stop  offset="1" style="stop-color:#999999"/>
</linearGradient>
<rect id="line_2" x="4" y="6" fill="url(#line_2_1_)" width="8" height="1"/>
<linearGradient id="line_3_1_" gradientUnits="userSpaceOnUse" x1="4" y1="8.5" x2="12" y2="8.5">
	<stop  offset="0" style="stop-color:#CCCCCC"/>
	<stop  offset="1" style="stop-color:#B3B3B3"/>
</linearGradient>
<rect id="line_3" x="4" y="8" fill="url(#line_3_1_)" width="8" height="1"/>
<linearGradient id="line_4_1_" gradientUnits="userSpaceOnUse" x1="4" y1="10.5" x2="12" y2="10.5">
	<stop  offset="0" style="stop-color:#E6E6E6"/>
	<stop  offset="1" style="stop-color:#CCCCCC"/>
</linearGradient>
<rect id="line_4" x="4" y="10" fill="url(#line_4_1_)" width="8" height="1"/>
<linearGradient id="line_5_1_" gradientUnits="userSpaceOnUse" x1="4" y1="12.5" x2="12" y2="12.5">
	<stop  offset="0" style="stop-color:#E6E6E6"/>
	<stop  offset="1" style="stop-color:#CCCCCC"/>
</linearGradient>
<rect id="line_5" x="4" y="12" fill="url(#line_5_1_)" width="8" height="1"/>
<g>
</g>
<g>
</g>
<g>
</g>
<g>
</g>
<g>
</g>
<g>
</g>
<g>
</g>
<g>
</g>
<g>
</g>
<g>
</g>
<g>
</g>
<g>
</g>
<g>
</g>
<g>
</g>
<g>
</g>
</svg>
